…
```r
both_claims %>% 
  filter(pat_id == allPatients[duplicated(allPatients)][31])
```

```
## # A tibble: 40 x 63
##         V1 rectype proc_cde dayssup diagprc_ind diag1 diag2 diag3 diag4 diag5 diag6 diag7 diag8 diag9 diag10
##      <int> <chr>   <chr>      <int>       <int> <chr> <chr> <chr> <chr> <chr> <chr> <chr> <chr> <lgl> <lgl> 
##  1 4682787 P       ""            30          -1 ""    ""    ""    ""    ""    ""    ""    ""    NA    NA    
##  2 4682789 P       ""            30          -1 ""    ""    ""    ""    ""    ""    ""    ""    NA    NA    
##  3 4726447 P       ""            30          -1 ""    ""    ""    ""    ""    ""    ""    ""    NA    NA    
##  4 4729976 P       ""            30          -1 ""    ""    ""    ""    ""    ""    ""    ""    NA    NA    
##  5 4740743 P       ""            30          -1 ""    ""    ""    ""    ""    ""    ""    ""    NA    NA    
##  6 4741608 P       ""            30          -1 ""    ""    ""    ""    ""    ""    ""    ""    NA    NA    
##  7 4743165 P       ""            30          -1 ""    ""    ""    ""    ""    ""    ""    ""    NA    NA    
##  8 4747097 P       ""            30          -1 ""    ""    ""    ""    ""    ""    ""    ""    NA    NA    
##  9 4747219 P       ""            30          -1 ""    ""    ""    ""    ""    ""    ""    ""    NA    NA    
## 10 4747221 P       ""            30          -1 ""    ""    ""    ""    ""    ""    ""    ""    NA    NA    
## # i 30 more rows
## # i 48 more variables: diag11 <lgl>, diag12 <lgl>, icdprc1 <chr>, icdprc2 <lgl>, icdprc3 <lgl>,
## #   icdprc4 <lgl>, icdprc5 <lgl>, icdprc6 <lgl>, icdprc7 <lgl>, icdprc8 <lgl>, icdprc9 <lgl>,
## #   icdprc10 <lgl>, icdprc11 <lgl>, icdprc12 <lgl>, quan <dbl>, srv_unit <int>, from_dt_claim <IDate>,
## #   to_dt <IDate>, month_id <int>, pat_id <chr>, claimno <chr>, ndc <int64>, bill_id <chr>, prscbr_id <chr>,
## #   product_name <chr>, generic_name <chr>, gpi14 <chr>, gpi_desc <chr>, gpi2 <int>, gpi2_desc <chr>,
## #   thptc_clas_id <int>, thptc_clas_desc <chr>, dosage_form_nm <chr>, route <chr>, strength <chr>, ...
```
…
